{
  "formatVersion": 3,
  "maps": [
    "map"
  ],
  "filtering": "pixelated",
  "wrapping": "clampToEdge",
  "pixelsPerUnit": 100,
  "framesPerSecond": 10,
  "opacity": null,
  "alphaTest": 0.1,
  "frameOrder": "rows",
  "grid": {
    "width": 200,
    "height": 200
  },
  "origin": {
    "x": 0.5,
    "y": 0.5
  },
  "animations": [
    {
      "id": "0",
      "name": "WalkFace",
      "startFrameIndex": 0,
      "endFrameIndex": 5,
      "speed": 0.7
    },
    {
      "id": "1",
      "name": "Loose",
      "startFrameIndex": 6,
      "endFrameIndex": 6,
      "speed": 1
    },
    {
      "id": "2",
      "name": "Win",
      "startFrameIndex": 7,
      "endFrameIndex": 7,
      "speed": 1
    },
    {
      "id": "3",
      "name": "WalkRight",
      "startFrameIndex": 8,
      "endFrameIndex": 14,
      "speed": 0.7
    },
    {
      "id": "4",
      "name": "WalkBack",
      "startFrameIndex": 15,
      "endFrameIndex": 20,
      "speed": 0.7
    },
    {
      "id": "5",
      "name": "Idle",
      "startFrameIndex": 8,
      "endFrameIndex": 8,
      "speed": 1
    }
  ],
  "mapSlots": {
    "map": "map",
    "light": null,
    "specular": null,
    "alpha": null,
    "normal": null
  }
}